<?xml version="1.0" encoding="utf-8"?>
<!-- Generator: Adobe Illustrator 21.0.2, SVG Export Plug-In . SVG Version: 6.00 Build 0)  -->
<svg version="1.1" id="Layer_1" xmlns="http://www.w3.org/2000/svg" xmlns:xlink="http://www.w3.org/1999/xlink" x="0px" y="0px"
	 viewBox="0 0 300 239.5" style="enable-background:new 0 0 300 239.5;" xml:space="preserve">
<style type="text/css">
	.st0{fill:#FFFFFF;}
	.st1{fill:#7696CD;}
</style>
<polygon class="st0" points="-968.4,86.5 -1011.2,86.5 -989.4,132 "/>
<g>
	<polygon class="st1" points="-1144.5,234.2 -844.5,234.2 -994.5,-6.5 	"/>
	<polygon class="st0" points="-1063.3,104 -925.7,104 -994.6,-6.5 	"/>
	<polygon class="st0" points="-964,99.7 -1026.3,99.7 -994.5,165.9 	"/>
	<polygon class="st0" points="-926.2,103.8 -962.2,103.8 -920.6,161.2 	"/>
	<polygon class="st0" points="-1023.9,102.3 -1059.5,102.3 -1040.1,142.7 	"/>
	<polygon class="st0" points="-954.5,91.4 -974.2,91.4 -963.4,113.8 	"/>
	<polygon class="st0" points="-1052,103.5 -1061,100.4 -1066,114.4 	"/>
</g>
<g>
	<path class="st1" d="M-821.5,234.2h300L-667.4,0c-1.9-3-6.2-3-8.1,0L-821.5,234.2z"/>
	<path class="st0" d="M-740.3,103.9h137.5L-667.4,0.1c-1.9-3.1-6.3-3.1-8.2,0L-740.3,103.9z"/>
	<path class="st0" d="M-675.9,96.4h-42.8l18.1,37.8c1.5,3.1,5.9,3,7.3-0.1L-675.9,96.4z"/>
	<path class="st0" d="M-623.3,125.7l14-32.3l13.9,22.4c0.4,0.6-0.1,1.3-0.8,1.2L-623.3,125.7z"/>
	<path class="st0" d="M-700.9,102.3h-35.5l-1.8,48.3c-0.2,4.4,5.6,6.1,7.8,2.3L-700.9,102.3z"/>
	<polygon class="st0" points="-631.5,91.4 -651.2,91.4 -640.4,113.8 	"/>
	<path class="st0" d="M-729,103.5l-11.3,0.4l-3.2,11c-0.4,1.2,1.1,2.1,2,1.2L-729,103.5z"/>
	<path class="st0" d="M-645.9,86.4h-42.8l18.6,38.7c1.3,2.7,5.1,2.7,6.4-0.1L-645.9,86.4z"/>
	<path class="st0" d="M-609.1,100.2l-55.9-0.5l26,53.4c1.2,2.5,4.8,2.5,5.9-0.1L-609.1,100.2z"/>
	<path class="st0" d="M-595.2,116.2h-19.7l8.6,17.8c0.8,1.8,3.4,1.7,4.1-0.1L-595.2,116.2z"/>
</g>
<g>
	<g>
		<path class="st1" d="M-424.5,238h300l-78.9-126.6c-8.1-1.2-127.4-2.7-141.4-1.4L-424.5,238z"/>
	</g>
	<path class="st0" d="M-211.3,136.6l-9.9-12c-1.2-1.4-3.5-1.1-4.2,0.6l-11.3,27.8c-0.8,1.9-3.4,2.1-4.4,0.3l-19.2-33
		c-1-1.7-3.4-1.6-4.3,0.1l-3.1,5.7c-0.9,1.7-3.4,1.7-4.3,0l-8.1-14.6c-1-1.7-3.4-1.7-4.3,0.1l-13.1,24.9c-0.9,1.8-3.5,1.7-4.4,0
		l-8.8-17.6c-0.9-1.8-3.4-1.8-4.3-0.1l-18.2,31.6c-1.2,2.1-4.5,1.3-4.6-1.1l-1.4-30.3c-0.1-1.4-1.2-2.4-2.6-2.3l-3.2,0.2
		c-2,0.1-2.6-2.1-1.6-3.8l4.1-6.5l66-106.9c1-1.5,3.2-1.5,4.2,0l72.7,117.6c1.2,1.9,0.2,4.4-2,3.8l-0.9-0.2c-1.4-0.4-2.9,0.6-3,2.1
		l-1.3,12.3C-207.2,137.5-209.9,138.3-211.3,136.6z"/>
</g>
<g>
	<g>
		<g>
			<path class="st1" d="M0,239.5h300L203,83.7c-1.9-3-98.4-12.1-100.2-9.1L0,239.5z"/>
		</g>
	</g>
	<path class="st0" d="M153.7,4.7l50.8,81.5c0.6,0.9,0.7,2,0.4,3l-0.5,1.3c-0.9,2.6-4.3,3.2-6,1.2l-0.5-0.6c-1.6-1.9-4.7-1.6-5.8,0.7
		l-3,5.8c-1.1,2.2-4,2.6-5.7,0.8l-12.7-13.4c-1.6-1.7-4.4-1.4-5.6,0.6l-12.2,20.1c-1.3,2.2-4.4,2.3-5.9,0.2L131,83.6
		c-1.4-2-4.4-2-5.8,0.1l-2.6,3.9c-1.7,2.5-5.5,1.9-6.3-0.9l-1.3-4.1c-0.6-2.1-3.1-3.1-5-2.1l-4.3,2.3c-3.2,1.7-6.7-2-4.7-5
		l45.5-72.8C147.7,2.5,152.3,2.5,153.7,4.7z"/>
</g>
</svg>
